3606,Edward F Knapp State,Montpelier,United States,MPV,KMPV,44.203503,-72.562328,1165,America/New_York
3607,San Nicolas Island Nolf,San Nicolas Island,United States,,KNSI,33.239765,-119.45816,506,America/Los_Angeles
3608,Richmond Intl,Richmond,United States,RIC,KRIC,37.505167,-77.319667,167,America/New_York
3609,Shreveport Rgnl,Shreveport,United States,SHV,KSHV,32.446629,-93.8256,258,America/Chicago
3610,Merle K Mudhole Smith,Cordova,United States,CDV,PACV,60.491778,-145.477556,48,America/Anchorage
3611,Norfolk Intl,Norfolk,United States,ORF,KORF,36.894611,-76.201222,26,America/New_York
3612,Southeast Texas Rgnl,Beaumont,United States,BPT,KBPT,29.950833,-94.020694,15,America/Chicago
3613,Savannah Hilton Head Intl,Savannah,United States,SAV,KSAV,32.127583,-81.202139,51,America/New_York
3614,Hill Afb,Ogden,United States,HIF,KHIF,41.123939,-111.973039,4789,America/Denver
3615,Nome,Nome,United States,OME,PAOM,64.512203,-165.445247,37,America/Anchorage
3616,Scappoose Industrial Airpark,San Luis,United States,SPB,KSPB,45.771028,-122.861833,58,America/Los_Angeles
3617,St Petersburg Clearwater Intl,St. Petersburg,United States,PIE,KPIE,27.910167,-82.687389,10,America/New_York
3618,Menominee Marinette Twin Co,Macon,United States,MNM,KMNM,45.12665,-87.638443,625,America/Chicago
3619,Lone Star Executive,Conroe,United States,CXO,KCXO,30.351833,-95.414467,245,America/Chicago
3620,Deadhorse,Deadhorse,United States,SCC,PASC,70.19475,-148.465167,64,America/Anchorage
3621,San Antonio Intl,San Antonio,United States,SAT,KSAT,29.533694,-98.469778,809,America/Chicago
3622,Greater Rochester Intl,Rochester,United States,ROC,KROC,43.118866,-77.672389,559,America/New_York
3623,Patrick Afb,Coco Beach,United States,COF,KCOF,28.234922,-80.610125,8,America/New_York
3624,Teterboro,Teterboro,United States,TEB,KTEB,40.850103,-74.060837,9,America/New_York
3625,Ellsworth Afb,Rapid City,United States,RCA,KRCA,44.145042,-103.103567,3279,America/Denver
3626,Raleigh Durham Intl,Raleigh-durham,United States,RDU,KRDU,35.877639,-78.787472,435,America/New_York
3627,James M Cox Dayton Intl,Dayton,United States,DAY,KDAY,39.902375,-84.219375,1009,America/New_York
3628,Kenai Muni,Kenai,United States,ENA,PAEN,60.573111,-151.245,99,America/Anchorage
3629,Mc Alester Rgnl,Mcalester,United States,MLC,KMLC,34.882403,-95.783463,770,America/Chicago
3630,Niagara Falls Intl,Niagara Falls,United States,IAG,KIAG,43.107333,-78.946194,589,America/New_York
3631,Coulter Fld,Bryan,United States,CFD,KCFD,30.715694,-96.331361,367,America/Chicago
3632,Wright Aaf,Wright,United States,,KLHW,31.889097,-81.562333,45,America/New_York
3633,Newport News Williamsburg Intl,Newport News,United States,PHF,KPHF,37.131894,-76.492989,43,America/New_York
3634,Esler Rgnl,Alexandria,United States,ESF,KESF,31.394903,-92.295772,112,America/Chicago
3635,Altus Afb,Altus,United States,LTS,KLTS,34.667067,-99.266681,1382,America/Chicago
3636,Tucson Intl,Tucson,United States,TUS,KTUS,32.116083,-110.941028,2643,America/Phoenix
3637,Minot Afb,Minot,United States,MIB,KMIB,48.415572,-101.357661,1668,America/Chicago
3638,Beale Afb,Marysville,United States,BAB,KBAB,39.136089,-121.436567,113,America/Los_Angeles
3639,Greater Kankakee,Kankakee,United States,IKK,KIKK,41.071389,-87.846278,630,America/Chicago
3640,Seymour Johnson Afb,Goldsboro,United States,GSB,KGSB,35.339383,-77.960589,110,America/New_York
3641,Theodore Francis Green State,Providence,United States,PVD,KPVD,41.732581,-71.420383,55,America/New_York
3642,Salisbury Ocean City Wicomico Rgnl,Salisbury,United States,SBY,KSBY,38.340525,-75.510289,52,America/New_York
3643,Rancho Murieta,Rancho Murieta,United States,RIU,KRIU,38.486778,-121.102778,141,America/Los_Angeles
3644,Bob Hope,Burbank,United States,BUR,KBUR,34.200667,-118.358667,778,America/Los_Angeles
3645,Detroit Metro Wayne Co,Detroit,United States,DTW,KDTW,42.212444,-83.353389,645,America/New_York
3646,Tampa Intl,Tampa,United States,TPA,KTPA,27.975472,-82.53325,26,America/New_York
3647,Pembina Muni,Pembina,United States,PMB,KPMB,48.942501,-97.240833,795,America/Chicago
3648,Polk Aaf,Fort Polk,United States,POE,KPOE,31.044833,-93.191667,330,America/Chicago
3649,Eielson Afb,Fairbanks,United States,EIL,PAEI,64.665667,-147.1015,548,America/Anchorage
3650,Chisholm Hibbing,Hibbing,United States,HIB,KHIB,47.3866,-92.838994,1353,America/Chicago
3651,Angelina Co,Lufkin,United States,LFK,KLFK,31.234014,-94.75,296,America/Chicago
3652,Midland Intl,Midland,United States,MAF,KMAF,31.942528,-102.201914,2871,America/Chicago
3653,Austin Straubel Intl,Green Bay,United States,GRB,KGRB,44.485072,-88.129589,695,America/Chicago
3654,Ardmore Muni,Ardmore,United States,ADM,KADM,34.300833,-97.008889,762,America/Chicago
3655,Mc Guire Afb,Wrightstown,United States,WRI,KWRI,40.015556,-74.591667,131,America/New_York
3656,Cherry Point Mcas,Cherry Point,United States,NKT,KNKT,34.900872,-76.880733,29,America/New_York
3657,Emanuel Co,Santa Barbara,United States,SBO,KSBO,32.609139,-82.369944,327,America/New_York
3658,Augusta Rgnl At Bush Fld,Bush Field,United States,AGS,KAGS,33.369944,-81.9645,144,America/New_York
3659,Sloulin Fld Intl,Williston,United States,ISN,KISN,48.177939,-103.642347,1982,America/Chicago
3660,Adams Fld,Little Rock,United States,LIT,KLIT,34.729444,-92.224306,262,America/Chicago
3661,Stewart Intl,Newburgh,United States,SWF,KSWF,41.504094,-74.104839,491,America/New_York
3662,Baudette Intl,Baudette,United States,BDE,KBDE,48.728444,-94.612222,1086,America/Chicago
3663,Sacramento Executive,Sacramento,United States,SAC,KSAC,38.512524,-121.49347,24,America/Los_Angeles
3664,Homer,Homer,United States,HOM,PAHO,59.645556,-151.476583,84,America/Anchorage
3665,Waynesville Rgnl Arpt At Forney Fld,Fort Leonardwood,United States,TBN,KTBN,37.741631,-92.140736,1159,America/Chicago
3666,Dobbins Arb,Marietta,United States,MGE,KMGE,33.915382,-84.516319,1068,America/New_York
3667,Fairchild Afb,Spokane,United States,SKA,KSKA,47.615058,-117.655772,2461,America/Los_Angeles
3668,Roscommon Co,Houghton Lake,United States,HTL,KHTL,44.359806,-84.671112,1150,America/New_York
3669,Tyndall Afb,Panama City,United States,PAM,KPAM,30.069567,-85.575417,17,America/Chicago
3670,Dallas Fort Worth Intl,Dallas-Fort Worth,United States,DFW,KDFW,32.896828,-97.037997,607,America/Chicago
3671,Melbourne Intl,Melbourne,United States,MLB,KMLB,28.102753,-80.645258,33,America/New_York
3672,Mc Chord Afb,Tacoma,United States,TCM,KTCM,47.137678,-122.476475,322,America/Los_Angeles
3673,Austin Bergstrom Intl,Austin,United States,AUS,KAUS,30.194528,-97.669889,542,America/Chicago
3674,Rickenbacker Intl,Columbus,United States,LCK,KLCK,39.813786,-82.927822,744,America/New_York
3675,Sawyer Intl,Gwinn,United States,,KSAW,46.353625,-87.395353,1221,America/New_York
3676,Mc Ghee Tyson,Knoxville,United States,TYS,KTYS,35.810972,-83.994028,981,America/New_York
3677,Hood Aaf,Fort Hood,United States,HLR,KHLR,31.138731,-97.714469,924,America/Chicago
3678,Lambert St Louis Intl,St. Louis,United States,STL,KSTL,38.748697,-90.370028,618,America/Chicago
3679,Millville Muni,Millville,United States,MIV,KMIV,39.367806,-75.072222,85,America/New_York
3680,Sheppard Afb Wichita Falls Muni,Wichita Falls,United States,SPS,KSPS,33.988797,-98.491894,1019,America/Chicago
3681,Cincinnati Muni Lunken Fld,Cincinnati,United States,LUK,KLUK,39.103333,-84.418611,483,America/New_York
3682,Hartsfield Jackson Atlanta Intl,Atlanta,United States,ATL,KATL,33.636719,-84.428067,1026,America/New_York
3683,Castle,Merced,United States,MER,KMER,37.380481,-120.568189,189,America/Los_Angeles
